Library\Bee\artifacts\mvdfrm\UnityEngine.TestRunner.ref.dll_E55D0F7C63F01D9E.mvfrm
Library\Bee\artifacts\mvdfrm\UnityEditor.Graphs.dll_281E949FAF5861AB.mvfrm
Library\Bee\artifacts\mvdfrm\UnityEditor.CoreModule.dll_8EA6A98623319079.mvfrm
Library\Bee\artifacts\mvdfrm\UnityEditor.DeviceSimulatorModule.dll_8E4C10CD6ACD9598.mvfrm
Library\Bee\artifacts\mvdfrm\UnityEditor.DiagnosticsModule.dll_1DA34EA017DAA1E6.mvfrm
Library\Bee\artifacts\mvdfrm\UnityEditor.dll_7D7CF8FC3817CFCC.mvfrm
Library\Bee\artifacts\mvdfrm\UnityEditor.GraphViewModule.dll_0CD8A358111F84FD.mvfrm
Library\Bee\artifacts\mvdfrm\UnityEditor.PackageManagerUIModule.dll_7C289BAA5822F095.mvfrm
Library\Bee\artifacts\mvdfrm\UnityEditor.QuickSearchModule.dll_A8B2CFAD70B19E3F.mvfrm
Library\Bee\artifacts\mvdfrm\UnityEditor.SceneTemplateModule.dll_394661FE17C7AAA0.mvfrm
Library\Bee\artifacts\mvdfrm\UnityEditor.TextCoreFontEngineModule.dll_32751DC80002A5D7.mvfrm
Library\Bee\artifacts\mvdfrm\UnityEditor.TextCoreTextEngineModule.dll_7A5D54398F865EF5.mvfrm
Library\Bee\artifacts\mvdfrm\UnityEditor.UIBuilderModule.dll_6161507483D7FE31.mvfrm
Library\Bee\artifacts\mvdfrm\UnityEditor.UIElementsModule.dll_B991847285F1B715.mvfrm
Library\Bee\artifacts\mvdfrm\UnityEditor.UIElementsSamplesModule.dll_0E9FB6A04CCED2A8.mvfrm
Library\Bee\artifacts\mvdfrm\UnityEditor.UIServiceModule.dll_9A5361D76D0F4E4B.mvfrm
Library\Bee\artifacts\mvdfrm\UnityEditor.UnityConnectModule.dll_4DC0B14CF66D7BAF.mvfrm
Library\Bee\artifacts\mvdfrm\UnityEngine.AccessibilityModule.dll_6BEBCD95183DD23D.mvfrm
Library\Bee\artifacts\mvdfrm\UnityEngine.AIModule.dll_977FD0C401D289AD.mvfrm
Library\Bee\artifacts\mvdfrm\UnityEngine.AndroidJNIModule.dll_37DA6D45CF1125EB.mvfrm
Library\Bee\artifacts\mvdfrm\UnityEngine.AnimationModule.dll_DB5E1F80EB7C59A3.mvfrm
Library\Bee\artifacts\mvdfrm\UnityEngine.ARModule.dll_50F295C75EEFE876.mvfrm
Library\Bee\artifacts\mvdfrm\UnityEngine.AssetBundleModule.dll_EC9C029ED3185331.mvfrm
Library\Bee\artifacts\mvdfrm\UnityEngine.AudioModule.dll_A2E0DECDE6DE19D5.mvfrm
Library\Bee\artifacts\mvdfrm\UnityEngine.ClothModule.dll_09C93BC8C0FAF8B9.mvfrm
Library\Bee\artifacts\mvdfrm\UnityEngine.ClusterInputModule.dll_CD5D2662A7F54E75.mvfrm
Library\Bee\artifacts\mvdfrm\UnityEngine.ClusterRendererModule.dll_93F8D33EDA88A31C.mvfrm
Library\Bee\artifacts\mvdfrm\UnityEngine.CoreModule.dll_B1C77CD8CB36FBA4.mvfrm
Library\Bee\artifacts\mvdfrm\UnityEngine.CrashReportingModule.dll_CDA35F779F493DBC.mvfrm
Library\Bee\artifacts\mvdfrm\UnityEngine.DirectorModule.dll_8A6CFDFE445112C1.mvfrm
Library\Bee\artifacts\mvdfrm\UnityEngine.dll_B0213FD4968B5CB1.mvfrm
Library\Bee\artifacts\mvdfrm\UnityEngine.DSPGraphModule.dll_8FBE5F67B6B1E3E2.mvfrm
Library\Bee\artifacts\mvdfrm\UnityEngine.GameCenterModule.dll_6227B760955216DC.mvfrm
Library\Bee\artifacts\mvdfrm\UnityEngine.GIModule.dll_2FBC19D19D8171C7.mvfrm
Library\Bee\artifacts\mvdfrm\UnityEngine.GridModule.dll_8F3898C6E38B919B.mvfrm
Library\Bee\artifacts\mvdfrm\UnityEngine.HotReloadModule.dll_5CA6DD86C6AF7525.mvfrm
Library\Bee\artifacts\mvdfrm\UnityEngine.ImageConversionModule.dll_FFEAD0EF5CAD5B10.mvfrm
Library\Bee\artifacts\mvdfrm\UnityEngine.IMGUIModule.dll_DB407E34AD0FADB6.mvfrm
Library\Bee\artifacts\mvdfrm\UnityEngine.InputLegacyModule.dll_7DE11DBD6B0A0922.mvfrm
Library\Bee\artifacts\mvdfrm\UnityEngine.InputModule.dll_0956A67E5D163E79.mvfrm
Library\Bee\artifacts\mvdfrm\UnityEngine.JSONSerializeModule.dll_CC0356D1177932C7.mvfrm
Library\Bee\artifacts\mvdfrm\UnityEngine.LocalizationModule.dll_0BA9F0B53F71416E.mvfrm
Library\Bee\artifacts\mvdfrm\UnityEngine.NVIDIAModule.dll_3CCA09D27695CC90.mvfrm
Library\Bee\artifacts\mvdfrm\UnityEngine.ParticleSystemModule.dll_20B5A8C40D5AC94A.mvfrm
Library\Bee\artifacts\mvdfrm\UnityEngine.PerformanceReportingModule.dll_56A0804B08EB3463.mvfrm
Library\Bee\artifacts\mvdfrm\UnityEngine.Physics2DModule.dll_28040F718C795138.mvfrm
Library\Bee\artifacts\mvdfrm\UnityEngine.PhysicsModule.dll_69F650CD4CE58146.mvfrm
Library\Bee\artifacts\mvdfrm\UnityEngine.ProfilerModule.dll_BCB33734DDAA99CE.mvfrm
Library\Bee\artifacts\mvdfrm\UnityEngine.RuntimeInitializeOnLoadManagerInitializerModule.dll_D0835D5DC2653201.mvfrm
Library\Bee\artifacts\mvdfrm\UnityEngine.ScreenCaptureModule.dll_E5EB04562BE55F29.mvfrm
Library\Bee\artifacts\mvdfrm\UnityEngine.SharedInternalsModule.dll_83FC0FC4D3DB5660.mvfrm
Library\Bee\artifacts\mvdfrm\UnityEngine.SpriteMaskModule.dll_4B5429F0B6C1AC56.mvfrm
Library\Bee\artifacts\mvdfrm\UnityEngine.SpriteShapeModule.dll_05FD2FF988BA8B3B.mvfrm
Library\Bee\artifacts\mvdfrm\UnityEngine.StreamingModule.dll_8FF30CD13B0410E1.mvfrm
Library\Bee\artifacts\mvdfrm\UnityEngine.SubstanceModule.dll_6C9E211A86570EEF.mvfrm
Library\Bee\artifacts\mvdfrm\UnityEngine.SubsystemsModule.dll_B601905285099469.mvfrm
Library\Bee\artifacts\mvdfrm\UnityEngine.TerrainModule.dll_843CCC3C22A3CA34.mvfrm
Library\Bee\artifacts\mvdfrm\UnityEngine.TerrainPhysicsModule.dll_21305197269DC3D7.mvfrm
Library\Bee\artifacts\mvdfrm\UnityEngine.TextCoreFontEngineModule.dll_B0D4991B130064A2.mvfrm
Library\Bee\artifacts\mvdfrm\UnityEngine.TextCoreTextEngineModule.dll_F8BCCF8CA2841DC0.mvfrm
Library\Bee\artifacts\mvdfrm\UnityEngine.TextRenderingModule.dll_0F2A7660E31CDF1E.mvfrm
Library\Bee\artifacts\mvdfrm\UnityEngine.TilemapModule.dll_233933BD3A60AB3D.mvfrm
Library\Bee\artifacts\mvdfrm\UnityEngine.TLSModule.dll_121179A682CD109A.mvfrm
Library\Bee\artifacts\mvdfrm\UnityEngine.UIElementsModule.dll_BA3FF1BA8835D060.mvfrm
Library\Bee\artifacts\mvdfrm\UnityEngine.UIElementsNativeModule.dll_C6A2503FC99B60B7.mvfrm
Library\Bee\artifacts\mvdfrm\UnityEngine.UIModule.dll_92F36EF15E198F59.mvfrm
Library\Bee\artifacts\mvdfrm\UnityEngine.UmbraModule.dll_1DB58AE67404C548.mvfrm
Library\Bee\artifacts\mvdfrm\UnityEngine.UNETModule.dll_446DC4C21845F11D.mvfrm
Library\Bee\artifacts\mvdfrm\UnityEngine.UnityAnalyticsCommonModule.dll_F1DF3D8F22D3D2C1.mvfrm
Library\Bee\artifacts\mvdfrm\UnityEngine.UnityAnalyticsModule.dll_4055198DB9821B46.mvfrm
Library\Bee\artifacts\mvdfrm\UnityEngine.UnityConnectModule.dll_3B20355BF0F57C5A.mvfrm
Library\Bee\artifacts\mvdfrm\UnityEngine.UnityCurlModule.dll_0E7AC0B25B904B90.mvfrm
Library\Bee\artifacts\mvdfrm\UnityEngine.UnityTestProtocolModule.dll_CA626C92A6CA27FE.mvfrm
Library\Bee\artifacts\mvdfrm\UnityEngine.UnityWebRequestAssetBundleModule.dll_FA2AACBE41C24297.mvfrm
Library\Bee\artifacts\mvdfrm\UnityEngine.UnityWebRequestAudioModule.dll_CE9CD4298F55FEFB.mvfrm
Library\Bee\artifacts\mvdfrm\UnityEngine.UnityWebRequestModule.dll_1189D89967A1F58F.mvfrm
Library\Bee\artifacts\mvdfrm\UnityEngine.UnityWebRequestTextureModule.dll_19712776CF1F1230.mvfrm
Library\Bee\artifacts\mvdfrm\UnityEngine.UnityWebRequestWWWModule.dll_C37F14E89243DA2C.mvfrm
Library\Bee\artifacts\mvdfrm\UnityEngine.VehiclesModule.dll_022FF77DBE7AE25C.mvfrm
Library\Bee\artifacts\mvdfrm\UnityEngine.VFXModule.dll_92F01215593A7A07.mvfrm
Library\Bee\artifacts\mvdfrm\UnityEngine.VideoModule.dll_C7EA6338A970357A.mvfrm
Library\Bee\artifacts\mvdfrm\UnityEngine.VirtualTexturingModule.dll_EB2F04AEA249E142.mvfrm
Library\Bee\artifacts\mvdfrm\UnityEngine.VRModule.dll_E5C59576FFD414D1.mvfrm
Library\Bee\artifacts\mvdfrm\UnityEngine.WindModule.dll_281658015C6D7A0D.mvfrm
Library\Bee\artifacts\mvdfrm\UnityEngine.XRModule.dll_1884587B890E622F.mvfrm
Library\Bee\artifacts\mvdfrm\UnityEditor.WindowsStandalone.Extensions.dll_75F617D12D1E19B7.mvfrm